Name,BirthDate,Sex,BodyweightKg,WeightClassKg,Division,Equipment,Event,Squat1Kg,Squat2Kg,Squat3Kg,Best3SquatKg,Bench1Kg,Bench2Kg,Bench3Kg,Best3BenchKg,Deadlift1Kg,Deadlift2Kg,Deadlift3Kg,Best3DeadliftKg,TotalKg,Place
Cheryl Hendry,,F,46,47,F-C-Open,Raw,SBD,80,85,-87.5,85,50,52.5,-55,52.5,100,112.5,-117.5,112.5,250,1
Pamela Irving,,F,49.5,52,F-C-Open,Raw,SBD,-75,75,80,80,35,40,45,45,80,87.5,90,90,215,1
Sandhya Bangar,,F,57,57,F-C-Open,Raw,SBD,80,85,-90,85,47.5,50,,50,115,120,125,125,260,1
Mhairi Shaw,,F,56,57,F-C-Open,Raw,SBD,-85,85,92.5,92.5,40,-45,45,45,110,-120,120,120,257.5,2
Valerie Dourley,,F,56.1,57,F-C-Open,Raw,SBD,-100,100,-102.5,100,-40,40,-45,40,95,97.5,-100,97.5,237.5,3
Shelley Passmore,,F,61,63,F-C-Open,Raw,SBD,140,145,-150,145,80,85,-90,85,140,147.5,-155,147.5,377.5,1
Bianca Mourik,,F,61,63,F-C-Open,Raw,SBD,112.5,120,125,125,55,57.5,60,60,130,137.5,142.5,142.5,327.5,2
Amy Craig,,F,62.5,63,F-C-Open,Raw,SBD,115,122.5,-130,122.5,57.5,62.5,65,65,125,135,-145,135,322.5,3
Melanie Nocher,,F,62.5,63,F-C-Open,Raw,SBD,85,-90,90,90,57.5,60,62.5,62.5,125,-130,130,130,282.5,4
Chloe Alcorn,,F,60,63,F-C-Open,Raw,SBD,-80,-85,85,85,40,45,-50,45,115,122.5,130,130,260,5
Lauren Laing,,F,62.1,63,F-C-Open,Raw,SBD,90,-92.5,-92.5,90,50,-55,-55,50,105,115,-120,115,255,6
Kristel Sepp,,F,61.3,63,F-C-Open,Raw,SBD,75,-80,80,80,45,47.5,50,50,112.5,117.5,122.5,122.5,252.5,7
Nina Lepaus,,F,69,72,F-C-Open,Raw,SBD,120,127.5,132.5,132.5,72.5,75,77.5,77.5,157.5,167.5,175,175,385,1
Annie Nelson,,F,66.3,72,F-C-Open,Raw,SBD,120,130,132.5,132.5,67.5,70,72.5,72.5,160,167.5,170,170,375,2
Rebecca Patterson,,F,71.4,72,F-C-Open,Raw,SBD,117.5,-125,-125,117.5,57.5,-62.5,62.5,62.5,150,-170,-170,150,330,3
Emma Forshaw,,F,67.2,72,F-C-Open,Raw,SBD,-105,105,112.5,112.5,60,65,70,70,105,110,-117.5,110,292.5,4
Bethany Winkler,,F,69.8,72,F-C-Open,Raw,SBD,97.5,105,110,110,50,52.5,-55,52.5,120,127.5,-135,127.5,290,5
Annette Iafrate,,F,69.8,72,F-C-Open,Raw,SBD,90,97.5,-105,97.5,47.5,50,52.5,52.5,115,120,130,130,280,6
Cait Owens,,F,70.2,72,F-C-Open,Raw,SBD,100,105,110,110,47.5,52.5,-55,52.5,100,107.5,115,115,277.5,7
Michelle Goonewardena,,F,71.6,72,F-C-Open,Raw,SBD,-95,100,102.5,102.5,45,47.5,50,50,110,115,-120,115,267.5,8
Florence Pilcher,,F,64.9,72,F-C-Open,Raw,SBD,70,75,80,80,37.5,40,42.5,42.5,90,95,100,100,222.5,9
Sara Ward,,F,81.5,84,F-C-Open,Raw,SBD,150,155,160,160,85,87.5,90,90,140,145,-147.5,145,395,1
Tracy Brown #1,,F,81.9,84,F-C-Open,Raw,SBD,125,132.5,-137.5,132.5,62.5,-70,70,70,140,150,-160,150,352.5,2
Jaclyn Smith,,F,82.1,84,F-E-Open,Single-ply,SBD,125,130,135,135,75,82.5,-87.5,82.5,122.5,135,-140,135,352.5,1
Rachael Moir,,F,99,84+,F-C-Open,Raw,SBD,130,140,,140,85,92.5,97.5,97.5,150,-162.5,-162.5,150,387.5,1
Lorraine Wade,,F,85.3,84+,F-C-Open,Raw,SBD,-125,-130,130,130,72.5,77.5,80,80,160,-165,165,165,375,2
Emma Gunning,,F,87.2,84+,F-C-Open,Raw,SBD,-107.5,-107.5,107.5,107.5,52.5,57.5,60,60,117.5,125,130,130,297.5,3
Jason Lau,,M,65.9,66,M-C-Open,Raw,SBD,125,-132.5,-135,125,130,138,-140,138,175,185,195,195,458,1
Sam Henderson,,M,73.6,74,M-C-Open,Raw,SBD,142.5,147.5,-152.5,147.5,102.5,-105,-105,102.5,162.5,167.5,170,170,420,1
Simon Chan,,M,83,83,M-C-Open,Raw,SBD,217.5,230,240,240,147.5,155,160,160,227.5,242.5,255,255,655,1
John Wright #7,,M,79.9,83,M-C-Open,Raw,SBD,-210,215,220,220,140,-145,-145,140,230,-240,-240,230,590,2
Toby Keech,,M,81.5,83,M-C-Open,Raw,SBD,170,185,-190,185,97.5,102.5,-105,102.5,185,195,200,200,487.5,3
Danny Laing,,M,80.8,83,M-C-Open,Raw,SBD,150,160,165,165,105,110,115,115,190,-200,200,200,480,4
Shaun Beattie,,M,82.7,83,M-C-Open,Raw,SBD,160,170,-175,170,95,100,-107.5,100,190,200,-210,200,470,5
Yannick Longbottom,,M,81,83,M-C-Open,Raw,SBD,-160,160,-165,160,122.5,-125,-125,122.5,167.5,172.5,180,180,462.5,6
Kristoffer Wallace,,M,81.5,83,M-C-Open,Raw,SBD,140,-150,155,155,75,80,-85,80,175,185,-195,185,420,7
David Akinola,1991-11-15,M,84.7,93,M-C-Open,Raw,SBD,220,225,-227.5,225,150,-160,-160,150,240,260,272.5,272.5,647.5,1
Martin Porter,,M,91.1,93,M-C-Open,Raw,SBD,170,-180,185,185,117.5,125,127.5,127.5,245,255,265,265,577.5,2
Ehmer Aziz,,M,90.3,93,M-C-Open,Raw,SBD,170,180,190,190,110,115,120,120,240,247.5,-260,247.5,557.5,3
Aaron Tate #1,,M,91.4,93,M-C-Open,Raw,SBD,180,190,195,195,130,-135,-135,130,220,227.5,-230,227.5,552.5,4
Alexander Campbell,,M,89.2,93,M-C-Open,Raw,SBD,190,205,-207.5,205,122.5,127.5,-132.5,127.5,200,-215,-215,200,532.5,5
David Mooney,,M,91.6,93,M-C-Open,Raw,SBD,165,172.5,180,180,120,125,-127.5,125,210,220,225,225,530,6
Gavin Duncan,,M,90.7,93,M-C-Open,Raw,SBD,-145,145,155,155,115,120,125,125,190,205,215,215,495,7
Ross Sutherland,,M,91.1,93,M-C-Open,Raw,SBD,145,155,165,165,107.5,115,-120,115,200,215,-220,215,495,8
John Proctor,,M,92.5,93,M-C-Open,Raw,SBD,140,150,160,160,100,105,110,110,165,180,190,190,460,9
Kieran McFadyen,,M,91.7,93,M-C-Open,Raw,SBD,135,142.5,150,150,115,117.5,120,120,170,177.5,185,185,455,10
Calum Jamieson,,M,89.7,93,M-C-Open,Raw,SBD,140,147.5,152.5,152.5,95,100,-105,100,175,190,200,200,452.5,11
Kelvin Stephen,,M,90.4,93,M-C-Open,Raw,SBD,130,140,145,145,-85,85,90,90,172.5,-180,180,180,415,12
Iain Allen,,M,102.6,105,M-C-Open,Raw,SBD,190,202.5,207.5,207.5,122.5,130,-132.5,130,215,232.5,247.5,247.5,585,1
Roy Ritchie,,M,103.2,105,M-C-Open,Raw,SBD,182.5,200,-210,200,125,-132.5,132.5,132.5,220,247.5,-252.5,247.5,580,2
Ashley Mciver,,M,98.9,105,M-C-Open,Raw,SBD,180,190,200,200,112.5,117.5,-122.5,117.5,200,210,217.5,217.5,535,3
Lewis Glass,,M,103.8,105,M-C-Open,Raw,SBD,190,200,-210,200,95,102.5,107.5,107.5,205,215,220,220,527.5,4
Colin Horsburgh,,M,102.8,105,M-C-Open,Raw,SBD,195,-205,-205,195,90,-95,-95,90,200,207.5,215,215,500,5
Chris Willsdon,,M,116,120,M-C-Open,Raw,SBD,200,207.5,210,210,-142.5,142.5,-155,142.5,240,250,-255,250,602.5,1
Alan Rucroft,,M,139,120+,M-C-Open,Raw,SBD,170,180,190,190,120,-130,-130,120,180,200,210,210,520,1
