Place,Name,BirthDate,Sex,State,Division,Equipment,BodyweightKg,WeightClassKg,Squat1Kg,Squat2Kg,Squat3Kg,Best3SquatKg,Bench1Kg,Bench2Kg,Bench3Kg,Best3BenchKg,Deadlift1Kg,Deadlift2Kg,Deadlift3Kg,Best3DeadliftKg,TotalKg,Event
1,Claire Meagher,,F,NS,Sub-Juniors,Raw,61.19,63,102.5,110,115,115,47.5,50,52.5,52.5,115,122.5,130,130,297.5,SBD
1,Bailey Hart,,F,NS,Juniors,Raw,55.65,57,107.5,112.5,117.5,117.5,57.5,60,62.5,62.5,125,135,142.5,142.5,322.5,SBD
2,Kathleen Linehan,,F,NS,Juniors,Raw,56.3,57,-102.5,102.5,-105,102.5,52.5,55,57.5,57.5,107.5,115,120,120,280,SBD
3,Faith Hamlyn,,F,NL,Juniors,Raw,53.62,57,75,80,85,85,55,57.5,60,60,77.5,85,87.5,87.5,232.5,SBD
1,Madison Doucette,,F,NS,Juniors,Raw,58.78,63,85,92.5,-97.5,92.5,67.5,72.5,-77.5,72.5,140,155,165,165,330,SBD
2,Haley Greene,,F,NS,Juniors,Raw,58.82,63,80,90,97.5,97.5,52.5,57.5,-60,57.5,132.5,142.5,150,150,305,SBD
3,Karen Ballesteros,,F,NS,Juniors,Raw,61.9,63,107.5,112.5,-120,112.5,60,62.5,-65,62.5,107.5,112.5,117.5,117.5,292.5,SBD
1,Paige Minicola,,F,NS,Juniors,Raw,68.42,72,122.5,127.5,132.5,132.5,-57.5,60,-62.5,60,127.5,132.5,140,140,332.5,SBD
2,Charlotte Elliott,,F,NL,Juniors,Raw,70.96,72,-105,105,-110,105,-52.5,55,-57.5,55,125,130,132.5,132.5,292.5,SBD
1,Ashley MacKendrick,,F,NS,Open,Raw,51.16,52,95,102.5,-105,102.5,62.5,65,-67.5,65,115,127.5,135,135,302.5,SBD
1,Louise Larade,,F,NS,Open,Raw,61.53,63,120,127.5,-132.5,127.5,65,-67.5,-67.5,65,145,155,-157.5,155,347.5,SBD
1,Mikaela Law,,F,NS,Open,Raw,71.11,72,160,167.5,175,175,80,90,-95,90,150,160,-167.5,160,425,SBD
2,Melissa MacKinnon,,F,NS,Open,Raw,68.67,72,115,125,135,135,57.5,62.5,65,65,125,135,-142.5,135,335,SBD
3,Alicia O'Leary,,F,NS,Open,Raw,64.7,72,97.5,-105,-110,97.5,45,47.5,-52.5,47.5,97.5,105,115,115,260,SBD
1,Amanda Parker,,F,NB,Open,Raw,74.22,84,142.5,147.5,155,155,80,85,90,90,160,170,180,180,425,SBD
1,Jean Hazelwood,,F,NS,Masters 1,Raw,91.42,84+,85,95,102.5,102.5,65,70,72.5,72.5,97.5,110,117.5,117.5,292.5,SBD
1,Anne Graham,,F,NS,Masters 2,Raw,67.31,72,100,105,110,110,50,52.5,55,55,115,120,125,125,290,SBD
1,Josh Sears,,M,NS,Sub-Juniors,Raw,72.79,74,135,142.5,152.5,152.5,107.5,112.5,120,120,170,180,195,195,467.5,SBD
1,Chirs Bishop,,M,NS,Sub-Juniors,Raw,87.42,93,-165,165,177.5,177.5,105,110,-112.5,110,-210,-210,210,210,497.5,SBD
2,Mathew Cejpa,,M,NS,Sub-Juniors,Raw,86.17,93,155,165,175,175,100,105,110,110,175,185,190,190,475,SBD
1,Edward Kwan,,M,NL,Juniors,Raw,62.51,66,150,157.5,162.5,162.5,80,85,90,90,182.5,190,-197.5,190,442.5,SBD
1,Jamie Swinimer,,M,NS,Juniors,Raw,81.13,83,167.5,-172.5,172.5,172.5,120,125,130,130,170,180,187.5,187.5,490,SBD
1,Thierry Charron,,M,NS,Juniors,Raw,92.9,93,225,237.5,242.5,242.5,145,150,-155,150,217.5,225,235,235,627.5,SBD
2,Terry Trevors,,M,NS,Juniors,Raw,90.85,93,200,210,220,220,125,130,137.5,137.5,225,235,250,250,607.5,SBD
3,Lucas Doucette,,M,NS,Juniors,Raw,87.06,93,155,157.5,162.5,162.5,92.5,95,97.5,97.5,190,195,197.5,197.5,457.5,SBD
1,Alex Driscoll,,M,NS,Juniors,Raw,108.25,120,207.5,222.5,227.5,227.5,152.5,162.5,-167.5,162.5,210,227.5,235,235,625,SBD
1,Phil Brown,,M,NS,Open,Raw,63.93,66,122.5,130,137.5,137.5,60,67.5,-72.5,67.5,157.5,167.5,-182.5,167.5,372.5,SBD
1,Jared Boyd,,M,NS,Open,Raw,79.62,83,192.5,202.5,210,210,135,140,145,145,235,242.5,-250,242.5,597.5,SBD
2,Daniel Bedell,,M,NS,Open,Raw,81.47,83,200,210,220,220,125,-130,135,135,200,210,220,220,575,SBD
3,Scott McCarvell,,M,NS,Open,Raw,80.97,83,190,195,-205,195,130,132.5,-137.5,132.5,205,210,-220,210,537.5,SBD
1,Justin Quedado,,M,NS,Open,Raw,83.33,93,237.5,250,255,255,150,157.5,165,165,265,282.5,-292.5,282.5,702.5,SBD
2,Brett McNeill,,M,NS,Open,Raw,92.98,93,227.5,237.5,-240,237.5,142.5,147.5,152.5,152.5,252.5,265,-275,265,655,SBD
3,Zachary Rooney,,M,NS,Open,Raw,88.32,93,210,222.5,232.5,232.5,130,140,145,145,255,265,272.5,272.5,650,SBD
4,James MacDonald #1,,M,NS,Open,Raw,87.3,93,187.5,197.5,-202.5,197.5,130,137.5,-142.5,137.5,210,222.5,-235,222.5,557.5,SBD
5,Andy O'Brien,,M,NS,Open,Raw,84.82,93,160,162.5,180,180,135,140,-145,140,190,210,227.5,227.5,547.5,SBD
6,Filip Cejpa,,M,NS,Open,Raw,87.88,93,165,175,177.5,177.5,127.5,132.5,-137.5,132.5,210,220,227.5,227.5,537.5,SBD
7,Jeff O'quinn,,M,NS,Open,Raw,89.17,93,180,190,-197.5,190,115,-120,-120,115,210,220,-225,220,525,SBD
8,Yousif Kettanah,,M,NS,Open,Raw,88.1,93,175,185,190,190,100,110,-115,110,200,215,220,220,520,SBD
9,Ben Williams,,M,NS,Open,Raw,90.92,93,172.5,185,-190,185,122.5,127.5,132.5,132.5,177.5,187.5,-195,187.5,505,SBD
1,Wesley Harper,,M,NS,Open,Raw,98.65,105,227.5,242.5,-250,242.5,175,185,187.5,187.5,235,245,-252.5,245,675,SBD
2,Marcus Hibbert,,M,NS,Open,Raw,102.58,105,-220,220,227.5,227.5,137.5,145,152.5,152.5,220,230,242.5,242.5,622.5,SBD
3,Craig Morse,,M,NS,Open,Raw,99.81,105,180,192.5,205,205,112.5,-120,127.5,127.5,227.5,240,252.5,252.5,585,SBD
1,Justin Roberts,,M,NS,Open,Raw,109.65,120,205,215,-220,215,125,132.5,137.5,137.5,265,290,300,300,652.5,SBD
2,Robert Julian,,M,NS,Open,Raw,105.6,120,160,170,177.5,177.5,125,-132.5,132.5,132.5,200,-215,215,215,525,SBD
3,Owen Myers,,M,NS,Open,Raw,115.81,120,135,142.5,-150,142.5,115,-120,125,125,185,192.5,197.5,197.5,465,SBD
1,Blair Douglas,,M,NS,Open,Raw,128.82,120+,225,-240,245,245,120,130,135,135,235,-257.5,-257.5,235,615,SBD
1,Michael Chiola,,M,NS,Masters 1,Raw,81.81,83,162.5,172.5,180,180,127.5,132.5,135,135,220,232.5,240,240,555,SBD
1,Charles Ley,,M,NS,Masters 3,Raw,76.72,83,125,130,137.5,137.5,72.5,77.5,-80,77.5,145,152.5,160,160,375,SBD
1,Heather Wolfe,,F,NS,Masters 1,Raw,68.08,72,,,,,60,65,67.5,67.5,,,,,67.5,B
1,Richard MacKay,,M,NS,Juniors,Raw,102.21,105,,,,,147.5,-152.5,-152.5,147.5,,,,,147.5,B
1,Robert Tanner,,M,NS,Open,Raw,73.63,74,,,,,-85,85,87.5,87.5,,,,,87.5,B
