Name,BirthDate,Sex,BodyweightKg,WeightClassKg,Division,Squat1Kg,Squat2Kg,Squat3Kg,Best3SquatKg,Squat4Kg,Bench1Kg,Bench2Kg,Bench3Kg,Best3BenchKg,Bench4Kg,Deadlift1Kg,Deadlift2Kg,Deadlift3Kg,Best3DeadliftKg,Deadlift4Kg,TotalKg,Place,Equipment,Event
Franziska Gattke,,F,66.2,67.5,Open,-110,110,125,125,135,62.5,70,75,75,,140,150,160,160,,360,1,Raw,SBD
Anna-Lena Schneider,,F,65.5,67.5,Open,90,97.5,102.5,102.5,,52.5,57.5,-62.5,57.5,,110,120,127.5,127.5,,287.5,2,Raw,SBD
Rebekka Thoma,,F,74.5,75,Open,100,105,107.5,107.5,,-60,60,62.5,62.5,-65,120,130,140,140,145,310,1,Raw,SBD
Svitlana Mednikova,,F,55,56,M 45-49,75,-80,80,80,,-50,50,-55,50,,85,90,95,95,,225,1,Wraps,SBD
Selina Förderer,,F,60,60,Open,105,112.5,117.5,117.5,,55,-60,-60,55,,120,130,137.5,137.5,,310,1,Wraps,SBD
Anna Dierks,,F,73.9,75,Jun,130,140,145,145,-150,72.5,77.5,-80,77.5,,145,155,160,160,165,382.5,1,Wraps,SBD
Merve Demirli,,M,82.4,82.5,Jun,100,-110,115,115,120,45,-50,-50,45,,105,115,120,120,-125,280,1,Wraps,SBD
Mustafa Hakan Turhan,,M,66.1,67.5,Jun,140,150,155,155,160,-120,-120,-120,,,150,160,170,170,,,DQ,Raw,SBD
Jan Hellwig,,M,64.5,67.5,Open,-120,132.5,145,145,,95,105,-112.5,105,,140,162.5,172.5,172.5,,422.5,1,Raw,SBD
David Rothermund,,M,68.9,75,T 16-17,80,105,-110,105,,40,55,60,60,,90,110,120,120,,285,1,Raw,SBD
Ravi Rothermund,,M,74.4,75,Jun,90,110,120,120,,75,85,95,95,100,100,120,-132.5,120,,335,1,Raw,SBD
Dennis Schneider,,M,72.9,75,Open,-140,145,150,150,,100,105,107.5,107.5,,175,185,190,190,,447.5,1,Raw,SBD
Enno Heisler,,M,81.4,82.5,Jun,180,190,195,195,,115,122.5,-130,122.5,,210,217.5,227.5,227.5,,545,1,Raw,SBD
Steffen Lauffs,,M,79.7,82.5,Jun,-182.5,182.5,190,190,,-125,130,137.5,137.5,,190,200,215,215,,542.5,2,Raw,SBD
Markus Frison,,M,81.4,82.5,Jun,155,165,175,175,,-115,115,120,120,,180,190,-200,190,,485,3,Raw,SBD
Max Wilheln,,M,80.9,82.5,Jun,137.5,145,152.5,152.5,,100,105,110,110,,160,170,180,180,,442.5,4,Raw,SBD
Ulrich Mielich,,M,75.4,82.5,M 75-79,50,60,65,65,,45,-50,50,50,,80,90,100,100,,215,1,Raw,SBD
Calvin Cremer,,M,83.2,90,T 15-16,115,122.5,130,130,135,65,72.5,80,80,85,120,127.5,135,135,140,345,1,Raw,SBD
Max Glok,,M,88.6,90,T 17-18,120,130,140,140,,107.5,112.5,-115,112.5,,150,165,172.5,172.5,,425,1,Raw,SBD
Phillipp Illgen,,M,87.6,90,Jun,-197.5,210,220,220,-230,142.5,150,155,155,,242.5,255,-265,255,,630,1,Raw,SBD
Dennis Glock,,M,87,90,Jun,140,155,165,165,,112.5,120,125,125,,180,210,-230,210,,500,2,Raw,SBD
Bastian Schwing,,M,87.4,90,Open,-165,165,180,180,,95,102.5,-107.5,102.5,,165,185,200,200,,482.5,1,Raw,SBD
Martin Höller,,M,89.1,90,M 55-59,147.5,155,160,160,,105,-110,110,110,,165,172.5,180,180,-182.5,450,1,Raw,SBD
Kurt Bücherl,,M,87.2,90,M 65-69,145,155,160,160,,55,,,55,,170,180,190,190,,405,1,Raw,SBD
Erik Knöfler,,M,98.1,100,Open,230,250,260,260,,170,182.5,190,190,,270,290,305,305,,755,1,Raw,SBD
Axel Kujat,,M,94.5,100,Open,170,,,170,,-170,180,187.5,187.5,,210,225,235,235,,592.5,2,Raw,SBD
Stefan Bücker,,M,92.1,100,Open,165,180,190,190,,125,130,132.5,132.5,,-200,200,220,220,,542.5,3,Raw,SBD
Stefan Kapplinghaus,,M,103.2,110,M 60-65,125,-135,135,135,,105,110,112.5,112.5,,170,180,187.5,187.5,,435,1,Raw,SBD
Lesley Adamu,,M,110.1,125,Jun,190,205,215,215,225,155,160,-165,160,,215,225,240,240,245,615,1,Raw,SBD
Dimitirj Feldstein,,M,123.3,125,Open,200,220,240,240,,185,-200,205,205,210,230,252.5,-260,252.5,,697.5,1,Raw,SBD
Dominik Jakwerth,,M,114.9,125,Open,220,232.5,240,240,,140,147.5,152.5,152.5,,240,-255,-255,240,,632.5,2,Raw,SBD
Jan Augustat,,M,73.8,75,M 45-49,160,170,-175,170,,100,105,-110,105,,170,180,190,190,,465,1,Wraps,SBD
Bashar Rida,,M,76.7,82.5,Jun,130,140,150,150,,-110,-110,-110,,,-150,-160,,,,,DQ,Wraps,SBD
Ronny Stein,,M,81.5,82.5,M 45-49,190,200,207.5,207.5,,125,132.5,137.5,137.5,,-220,230,-240,230,,575,1,Wraps,SBD
Steffen Kolb,,M,99.8,100,Open,240,260,-275,260,,-145,150,157.5,157.5,,235,255,-262.5,255,,672.5,1,Wraps,SBD
Marcus Lange,,M,109,110,Open,250,-270,280,280,,180,200,210,210,,260,280,-295,280,,770,1,Wraps,SBD
Joshua Wößner,,M,108.9,110,Open,230,245,255,255,,140,150,155,155,,230,250,-260,250,,660,2,Wraps,SBD
Franz Ritzer,,M,106.8,110,M 45-49,180,200,220,220,,130,140,-150,140,,230,240,250,250,260,610,1,Wraps,SBD
Dominik Hoppe,,M,110.3,125,Open,240,255,-265,255,,150,160,165,165,,240,255,-265,255,,675,1,Wraps,SBD
Heinz Thevissen,,M,111.8,125,M 55-59,150,,,150,,,,,,,,,,,,,DQ,Wraps,SBD
Patrick Ohleff,,M,135.7,140,Open,255,280,-300,280,,160,180,-190,180,,270,-300,300,300,,760,1,Wraps,SBD
Oliver Dorsch,,M,131.9,140,M 45-49,280,-300,-300,280,,170,175,177.5,177.5,,-250,250,,250,,707.5,1,Wraps,SBD
